benchdel_Rick_Schneider
…
#join to generate new df with 3 criteria:
rick_test <- rick_test %>% 
                left_join(my_bechdel4,by="MOVIE") %>% 
                select(MOVIE,crit1,crit2,crit3,crit4)

Finally, we can introduce a very strong criterium, that allows a movie to pass the test immediately. If the movie does not pass th criterium, it will no longer be taken into consideration for the evaluation of the others. Lets have a look at the crew_gender data set, to be more precise, at the different departments:

#store the different departments:
dep <- crew_gender %>% 
          select(DEPARTMENT) %>% 
          distinct()
dep

## # A tibble: 29 x 1
##    DEPARTMENT           
##    <chr>                
##  1 Directed by_         
##  2 Writing Credits _    
##  3 Produced by_         
##  4 Music by_            
##  5 Cinematography by_   
##  6 Film Editing by_     
##  7 Casting By_          
##  8 Production Design by_
##  9 Art Direction by_    
## 10 Set Decoration by_   
## # ... with 19 more rows
…
